##############################################################################
# Wargamer: Copyright (c) 1995-2001, Steven Green (wargamer@greenius.co.uk)	 #
# This Software is subject to the GNU General Public License.  				 #
# For License information see the file COPYING in the project root directory #
# For more information see the file README.									 #
##############################################################################

#####################################
# Makefile Include for Generic Windows Library
#
# This is included from wargamer.mk
#
#-------------------------------------------------------


LIBS += gwind.lib
CFLAGS += -i=$(ROOT)\src\gwind
lnk_dependencies += $(ROOT)\src\gwind\gwind.mif

!ifndef NOMAKELIB
!ifneq EXT LIB

TARGETS += make_gwind

make_gwind: .SYMBOLIC
	@echo Making gwind.dll
	@cd src\gwind
	@!wmake $(__MAKEOPTS__) $(MFLAGS) -f makefile
	@cd ..\..
!endif
!endif


