##############################################################################
# Wargamer: Copyright (c) 1995-2001, Steven Green (wargamer@greenius.co.uk)	 #
# This Software is subject to the GNU General Public License.  				 #
# For License information see the file COPYING in the project root directory #
# For more information see the file README.									 #
##############################################################################

#####################################
# Makefile Include for System Library
#
# This is included from wargamer.mk
#
#-------------------------------------------------------

!ifndef SYSTEM_MIF
SYSTEM_MIF=1

LIBS += system.lib
CFLAGS += -i=$(ROOT)\src\system
lnk_dependencies += $(ROOT)\src\system\system.mif

!ifndef NOMAKELIB
!ifneq EXT LIB
TARGETS += makeSystemLib


makeSystemLib: .SYMBOLIC
	@echo Making system.lib
        @cd src\system
        @!wmake $(__MAKEOPTS__) $(MFLAGS) -f makefile
        @cd ..\..

#        @!alias in `pushd %1 ^ %2& ^ popd`
#        @!in $(ROOT)\src\system wmake $(__MAKEOPTS__) $(MFLAGS) -f makefile
!endif
!endif

!endif
